
📡 公告說明,#genre#
資源來自網上,https://vd3.bdstatic.com/mda-kat1tr4ka5st965k/hd/mda-kat1tr4ka5st965k.mp4?pd=20
能看即有源,http://vd2.bdstatic.com/mda-ji4uxxfqu5tgr7c3/mda-ji4uxxfqu5tgr7c3.mp4
不能看即無緣,https://15799848.s21v.faiusr.com/58/ABUIABA6GAAg197E4gUozOqwrwU.mp4
施主不可強求,https://vdse.bdstatic.com/f18bdf41f28b68a1b0177fa5e5cdf8fe.mp4
無法收看再回報,https://vdse.bdstatic.com/363480020aaa13240bbe51121d3e2a65.mp4


🏀體育頻道,#genre#
緯來體育,rtmp://9sv2.mine.nu/sat/tv721
緯來體育,http://220.134.196.147:8553/http/60.251.39.91:8081/hls/67/809/ch28.m3u8
緯來體育,http://211.23.114.106:8504/http/60.251.39.91:8081/hls/67/809/ch28.m3u8
緯來體育,https://cloud.yumixiu768.com/tmp/123.m3u8


ELEVEN1,http://61.221.81.93:8078/hls/25/80/esport.m3u8
ELEVEN1,rtmp://9sv2.mine.nu/sat/tv731
ELEVEN1,http://211.23.114.106:8501/.m3u8
ELEVEN1,http://50.7.238.114:8278/golfchannel_twn/playlist.m3u8?tid=MFBF2798068027980680&ct=18393&tsum=d8204023f67120512c75a8882f121120


ELEVEN2,http://61.221.81.93:8078/hls/26/80/esport2.m3u8
ELEVEN2,rtmp://9sv2.mine.nu/sat/tv741

MOMOTV,rtmp://9sv2.mine.nu/sat/tv761
MOMOTV,http://220.134.196.147:8502/http/60.249.81.21:8088/hls/76/818/momo_max.m3u8
MOMOTV,http://220.134.196.147:8503/http/60.251.39.91:8081/hls/76/818/momo_max.m3u8
MOMOTV,http://220.134.196.147:8506/http/60.249.81.21:8088/hls/76/818/momo_max.m3u8


隨機體育1,rtmp://9sv2.mine.nu/sat/md011
隨機體育2,rtmp://9sv2.mine.nu/sat/md021
隨機體育3,rtmp://9sv2.mine.nu/sat/md031
隨機體育4,rtmp://9sv2.mine.nu/sat/md041
隨機體育5,rtmp://9sv2.mine.nu/sat/md051
隨機體育5,rtmp://219.80.97.77:1935/sat/md051
隨機體育5,rtmp://119.81.124.89:1935/sat/md051

博斯運動1,http://211.23.114.106:8512/http/116.50.42.18:8088/hls/210/10018/cstv18.m3u8
博斯運動1,http://220.134.196.147:8554/http/60.251.39.91:8081/hls/210/10018/cstv18.m3u8
博斯運動1,http://220.134.196.147:8554/http/116.50.42.18:8088/hls/210/10018/cstv18.m3u8

博斯運動2,http://220.134.196.147:8556/http/60.251.39.91:8081/hls/61/803/ch04.m3u8
博斯運動2,http://220.134.196.147:8556/http/116.50.42.18:8088/hls/61/803/ch04.m3u8
博斯運動2,http://220.134.196.147:8556/http/60.251.39.91:8081/hls/210/10015/cstv15.m3u8

博斯高球1,http://www.336699.live:1935/blockfour/litv-longturn05.stream/playlist.m3u8
博斯高球1,http://50.7.238.114:8278/bosigolf1_twn/playlist.m3u8?tid=m51c41c232c43&ct=18335&tsum=26e2e08302bf0409db94a692921fa08b
博斯高球2,http://50.7.238.114:8278/bosigolf2_twn/playlist.m3u8?tid=MC1C7192072371920723&ct=19249&tsum=fbea99cd84e7284f2cd3f8eab29435dc
博斯高球2,http://50.7.238.114:8278/bosigolf2_twn/playlist.m3u8?tid=MF5F9848925298489252&ct=19225&tsum=2600464749aadbcd55d1c32ec071e36e

博斯網球,http://www.336699.live:1935/blockfour/litv-longturn09.stream/playlist.m3u8
博斯網球,http://50.7.238.114:8278/bositennis_twn/playlist.m3u8?tid=MA9A5922328659223286&ct=19225&tsum=c83f112dbae37be6d20618138fddcf77

博斯無限,http://www.336699.live:1935/blockfour/litv-longturn10.stream/playlist.m3u8
博斯魅力,http://50.7.238.114:8278/bosisport1_twn/playlist.m3u8?tid=MF6F6900999569009995&ct=19225&tsum=1d6e966a02c88867f2a3234f3a980b7d

J Sports 1,https://stream01.willfonk.com/live_playlist.m3u8?cid=BS242&r=FHD&ccode=JP&m=d0:20:20:04:35:cc&t=0d6938cb3dcf4b79848bc1753a59daf1
J Sports 1,http://redlabmcdn.s.llnwi.net/nv02/bs15hd/index.m3u8
J Sports 1,https://cdnul194.cloudrsst.com/live/jsports1_540/playlist.m3u8
J Sports 2,https://stream01.willfonk.com/live_playlist.m3u8?cid=BS243&r=FHD&ccode=JP&m=d0:20:20:04:35:cc&t=0d6938cb3dcf4b79848bc1753a59daf1
J Sports 2,http://redlabmcdn.s.llnwi.net/nv02/bs11hd/index.m3u8
J Sports 2,http://redlabmcdn.s.llnwi.net/nv02/bs11hd/playlist.m3u8
J Sports 2,https://cdnul194.cloudrsst.com/live/jsports2_540/playlist.m3u8
J Sports 2,https://epg.pw/stream/8233abe4bba8d12dddff9599546de28f62252eafc2cd93d3d6e242cb9fe60f7c.m3u8
J Sports 3,https://stream01.willfonk.com/live_playlist.m3u8?cid=BS244&r=FHD&ccode=JP&m=d0:20:20:04:35:cc&t=0d6938cb3dcf4b79848bc1753a59daf1
J Sports 3,http://redlabmcdn.s.llnwi.net/nv02/bs12hd/index.m3u8
J Sports 3,https://cdnul194.cloudrsst.com/live/jsports3_540/playlist.m3u8
J Sports 3,https://epg.pw/stream/88e0e239073aade1594a0d0f5a1549671c3f3d71f5798e608545e086191b2e6e.m3u8

J Sports 4,https://stream01.willfonk.com/live_playlist.m3u8?cid=BS245&r=FHD&ccode=JP&m=d0:20:20:04:35:cc&t=0d6938cb3dcf4b79848bc1753a59daf1
J Sports 4,https://cdnul194.cloudrsst.com/live/jsports4_540/playlist.m3u8
J Sports 4,https://epg.pw/stream/558b6ef323d6424dd0298c029b17ac1669033f7e4ed670184237f4010c0553ab.m3u8

GAORA,https://stream01.willfonk.com/live_playlist.m3u8?cid=CS254&r=FHD&ccode=JP&m=d0:20:20:04:35:cc&t=0d6938cb3dcf4b79848bc1753a59daf1
GAORA,https://stream01.willfonk.com/live_playlist.m3u8?cid=CS254&r=FHD&ccode=JP&m=d0:20:20:04:35:cc&t=0d6938cb3dcf4b79848bc1753a59daf1

智林體育,http://www.336699.live:1935/blockfour/4gtv-4gtv101.stream/playlist.m3u8
智林體育,http://www.336699.live:1935/blockfour/4gtv-4gtv101.stream/playlist.m3u8
時尚運動X,http://www.336699.live:1935/blockfour/4gtv-4gtv014.stream/playlist.m3u8
TRACE Sport Stars,http://www.336699.live:1935/blockfour/4gtv-4gtv077.stream/playlist.m3u8
車迷TV,http://www.336699.live:1935/blocksix/4gtv-live201.stream/chunklist.m3u8
GINX Esports TV,http://www.336699.live:1935/blockfour/4gtv-4gtv053.stream/chunklist_w1429382938.m3u8

🇹🇼台灣👍,#genre#
民視,rtmp://9sv2.mine.nu/sat/tv051
民視,http://220.134.196.147:8564/http/60.251.39.91:8081/hls/73/815/ch49.m3u8

台視,rtmp://9sv2.mine.nu/sat/tv071
台視,http://220.134.196.147:8511/http/60.251.39.91:8081/hls/72/814/ch46.m3u8
台視,http://220.134.196.147:9574/http/60.251.39.91:8081/hls/72/814/ch46.m3u8


中視,rtmp://9sv2.mine.nu/sat/tv091
中視,http://220.134.196.147:8510/http/60.251.39.91:8081/hls/72/814/ch47.m3u8
中視,http://220.134.196.147:8510/http/59.126.161.39:8081/hls/72/814/ch47.m3u8

華視,rtmp://9sv2.mine.nu/sat/tv111
華視,http://220.134.196.147:8513/http/60.251.39.91:8081/hls/72/814/ch48.m3u8
華視,http://218.32.47.179:18503/http/192.168.1.9:8081/hls/72/814/ch48.m3u8
華視,http://220.134.196.147:9575/http/60.251.39.91:8081/hls/72/814/ch48.m3u8


大愛1台,https://pulltv1.wanfudaluye.com/live/tv1.m3u8
大愛1台,https://pulltv2.wanfudaluye.com/live/tv1.m3u8
大愛1台,http://218.32.47.179:8507/http/192.168.1.9:8081/hls/73/815/ch52.m3u8
大愛1台,http://220.134.196.147:8549/http/192.168.1.9:8081/hls/73/815/ch52.m3u8
大愛2台,https://pulltv1.wanfudaluye.com/live/tv2.m3u8
大愛2台,https://pulltv2.wanfudaluye.com/live/tv2.m3u8
大愛2台,http://220.134.196.147:9533/http/60.251.39.91:8081/hls/75/817/ch60.m3u8


公視,http://211.23.114.106:8505/http/60.251.39.91:8081/hls/73/815/ch50.m3u8
公視,http://220.134.196.147:8554/http/60.251.39.91:8081/hls/73/815/ch50.m3u8
公視,http://50.7.238.114:8278/ctv_taiwan/playlist.m3u8?tid=13765524&ct=17990&tsum=03eb77c1c186944b97737f14e95076c0
公視,http://50.7.238.114:8278/ctv_taiwan/playlist.m3u8?tid=m33b41eb996d0&amp;ct=18336&amp;tsum=ea5304d5140e9a3d2a32aece896feeed
公視,http://50.7.238.114:8278/ctv_taiwan/playlist.m3u8?tid=MCCC8750228587502285&amp;ct=19225&amp;tsum=aca6268c0dd9f618ed5e944942132557
公視,http://103.68.63.37:8278/ctv_taiwan/playlist.m3u8?tid=MDCD6096520560965205&amp;ct=19249&amp;tsum=64237c7ffa0c00b62657a938247bcab0


好消息综合,https://dqhxk7sbp7xog.cloudfront.net/hls-live/goodtv/_definst_/liveevent/live-ch1-2.m3u8
好消息综合,http://60.251.33.252:8508/http/60.251.39.91:8081/hls/74/816/ch53.m3u8
好消息综合,http://123.51.230.108:18507/http/60.251.39.91:8081/hls/74/816/ch53.m3u8
好消息综合,http://60.251.33.252:8502/http/60.251.39.91:8081/hls/74/816/ch53.m3u8

原住民族電視,https://raw.githubusercontent.com/ChiSheng9/iptv/master/TV35.m3u8
原住民族電視,http://streamipcf.akamaized.net/live/_definst_/live_720/chunklist_b1500.m3u8


東風37,http://123.51.230.108:18560/http/60.251.39.91:8081/hls/68/810/ch31.m3u8
東風37,http://123.51.229.65:18560/.m3u8
東風37,http://60.251.33.252:18560/.m3u8
東風37,http://220.134.196.147:8537/http/60.251.39.91:8081/hls/68/810/ch31.m3u8

八大第一,http://123.51.229.65:18539/http/116.50.42.18:8088/hls/66/808/ch22.m3u8
八大第一,http://220.134.196.147:8505/http/60.251.39.91:8081/hls/66/808/ch22.m3u8
八大第一,http://50.7.238.114:8278/badafirst/playlist.m3u8?tid=mb8efded78b4e12042621&ct=17874&tsum=028ad819cd9a0f949a043d652fa3e164


八大戲劇,http://220.134.196.147:8531/http/60.251.39.91:8081/hls/66/808/ch23.m3u8
八大戲劇,http://220.134.196.147:9543/http/60.251.39.91:8081/hls/66/808/ch23.m3u8
八大戲劇,http://50.7.238.114:8278/badadrama/playlist.m3u8?tid=m4970c4e1b988&ct=18335&tsum=20cb1d15d4e116ab9e44edb542cf51a5
八大戲劇,http://50.7.238.114:8278/badadrama/playlist.m3u8?tid=m6e4372d7fc8217605152&ct=17874&tsum=d9af89e299560350336e22c1418e6b54


八大綜合,http://220.134.196.147:8506/http/116.50.42.18:8081/hls/66/808/ch21.m3u8
八大綜合,http://50.7.238.114:8278/badazhonghe/playlist.m3u8?tid=mfb8d64b6276514171054&ct=17874&tsum=a87466c997089ea7dce98cd17301667d
八大綜合,http://50.7.238.114:8278/badazhonghe/playlist.m3u8?tid=MC7C4692263546922635&ct=19225&tsum=ffdc7a6397b511103e0df0b92e678790

三立都會,http://123.51.230.124:8507/http/60.251.39.91:8081/hls/65/807/ch19.m3u8
三立都會,http://123.51.230.124:8535/http/60.251.39.91:8081/hls/65/807/ch19.m3u8
三立都會,http://162.19.247.76:22222/live/uch6/index.m3u8
三立都會,https://sanlihalive1-a.akamaihd.net/4c3bb0ccad574d0e9b507c2dcd2dfabc/ap-northeast-1/4338955585001/profile_0/chunklist.m3u8?hdnea=st=1664678487~exp=9007200919419478~acl=/4c3bb0ccad574d0e9b507c2dcd2dfabc/*/profile_0/chunklist.m3u8*~hmac=1a3986bd8fb660eacbcc9954c67fb674fa810779ddc2fab5fa77188868ca3686


三立台灣,http://220.134.196.147:8513/http/60.251.39.91:8081/hls/65/807/ch20.m3u8
三立台灣,http://220.134.196.147:8531/http/60.251.39.91:8081/hls/65/807/ch20.m3u8
三立台灣,http://162.19.247.76:22222/live/uch5/index.m3u8
三立台灣,http://50.7.238.114:8278/sanlitaiwan/playlist.m3u8?tid=m92ccadc4dc3718157816&ct=17874&tsum=3570a8198ca0fb7ebb803807e38b33fb


衛視中文,http://220.134.196.147:8544/http/116.50.42.18:8081/hls/62/804/ch05.m3u8
衛視中文,http://220.134.196.147:8544/http/60.251.39.91:8081/hls/62/804/ch05.m3u8
衛視中文,http://4ksuper.live/play/live.php?mac=00:1A:79:50:63:9E&extension=ts&stream=941624
衛視中文,http://50.7.238.114:8278/weishichinese_twn/playlist.m3u8?tid=MB7B8325601583256015&amp;ct=19249&amp;tsum=88f84634240050b869fbbe8cfeb43cc7
衛視中文,http://103.68.63.37:8278/weishichinese_twn/playlist.m3u8?tid=MB7B8325601583256015&amp;ct=19249&amp;tsum=88f84634240050b869fbbe8cfeb43cc7

年代MUCH,http://220.134.196.147:8530/http/60.251.39.91:8081/hls/72/814/ch45.m3u8
年代MUCH,http://220.134.196.147:9550/http/60.251.39.91:8081/hls/72/814/ch45.m3u8
年代MUCH,http://220.134.196.147:9548/http/60.251.39.91:8081/hls/72/814/ch45.m3u8

JET綜合,http://220.134.196.147:8528/http/60.251.39.91:8081/hls/74/816/ch54.m3u8
JET綜合,http://220.134.196.147:8535/http/60.251.39.91:8081/hls/74/816/ch54.m3u8
JET綜合,http://50.7.238.114:8278/jettv_japan/playlist.m3u8?tid=mec9806b42012&ct=18335&tsum=e4518647627cab22a9faca0710d987ec
JET綜合,http://50.7.238.114:8278/jettv_japan/playlist.m3u8?tid=MA7A4202687942026879&ct=19225&tsum=e84bc4851b9d6f6a18282c1efcb6ed1d

國興衛視,http://220.134.196.147:8555/http/60.251.39.91:8081/hls/64/806/ch15.m3u8
國興衛視,http://220.134.196.147:9513/http/60.251.39.91:8081/hls/64/806/ch15.m3u8

中天綜合,http://220.134.196.147:8536/http/60.251.39.91:8081/hls/67/809/ch25.m3u8
中天綜合,http://220.134.196.147:8545/http/60.251.39.91:8081/hls/67/809/ch25.m3u8
中天綜合,http://107.151.203.111:2209/135/us50.php?id=ztz
中天綜合,http://23.237.10.66:16372/


中天娛樂,http://220.134.196.147:8536/http/60.251.39.91:8081/hls/67/809/ch26.m3u8
中天娛樂,http://220.134.196.147:8546/http/60.251.39.91:8081/hls/67/809/ch26.m3u8


東森綜合,http://220.134.196.147:8524/http/60.251.39.91:8081/hls/63/805/ch12.m3u8
東森綜合,http://220.134.196.147:9553/http/60.251.39.91:8081/hls/63/805/ch12.m3u8
東森綜合,http://220.134.196.147:9553/http/116.50.42.18:8081/hls/63/805/ch12.m3u8


東森超視,rtmp://9sv2.mine.nu/sat/tv331
東森超視,rtmp://219.80.97.77:1935/sat/tv331
東森超視,rtmp://119.81.124.89:1935/sat/tv331
東森超視,http://220.134.196.147:8508/http/60.251.39.91:8081/hls/64/806/ch14.m3u8


TVBS歡樂,rtmp://9sv2.mine.nu/sat/tv421
TVBS歡樂,rtmp://219.80.97.77:1935/sat/tv421
TVBS歡樂,rtmp://119.81.124.89:1935/sat/tv421
TVBS歡樂,http://220.134.196.147:8518/http/60.251.39.91:8081/hls/65/807/ch17.m3u8


StarWorld,http://220.134.196.147:8547/http/60.251.39.91:8081/hls/61/803/ch02.m3u8
StarWorld,http://220.134.196.147:8551/http/60.251.39.91:8081/hls/61/803/ch02.m3u8


緯來綜合,http://220.134.196.147:8533/http/60.251.39.91:8081/hls/68/810/ch32.m3u8
緯來綜合,http://60.251.33.252:18540/http/60.251.39.91:8081/hls/69/811/ch32.m3u8
緯來綜合,http://123.51.229.65:18540/http/116.50.42.18:8066/hls/68/810/ch32.m3u8
緯來綜合,http://60.251.33.252:18540/.m3u8


人間衛視,http://220.134.196.147:8512/http/60.251.39.91:8081/hls/69/811/ch36​​.m3u8
人間衛視,http://218.32.47.179:8506/http/192.168.1.9:8081/hls/69/811/ch36.m3u8
人間衛視,http://220.134.196.147:8506/http/60.251.39.91:8081/hls/69/811/ch36​​.m3u8
人間衛視,http://220.134.196.147:8512/http/60.251.39.91:8081/hls/69/811/ch36​​.m3u8

TLC,http://220.134.196.147:8516/http/60.251.39.91:8081/hls/70/812/ch38.m3u8
TLC,http://220.134.196.147:8557/http/60.251.39.91:8081/hls/70/812/ch38.m3u8

愛爾達娛樂,http://www.336699.live:1935/blockfour/4gtv-4gtv070.stream/playlist.m3u8
靖天綜合,http://www.336699.live:1935/blockfour/4gtv-4gtv046.stream/playlist.m3u8
靖天日本,http://www.336699.live:1935/blockfour/4gtv-4gtv047.stream/playlist.m3u8
靖天育樂,http://www.336699.live:1935/blockfour/4gtv-4gtv062.stream/playlist.m3u8
靖天國際,http://www.336699.live:1935/blockfour/4gtv-4gtv063.stream/playlist.m3u8
靖天歡樂,http://www.336699.live:1935/blockfour/4gtv-4gtv054.stream/playlist.m3u8
中視精彩,http://www.336699.live:1935/blockfour/4gtv-4gtv064.stream/playlist.m3u8
LUXE TV,http://www.336699.live:1935/blocksix/4gtv-live121.stream/playlist.m3u8
Pet Club,http://www.336699.live:1935/blocksix/4gtv-live110.stream/playlist.m3u8
TV5MONDE 生活時尚,http://www.336699.live:1935/blocksix/4gtv-live122.stream/playlist.m3u8
Love Nature,http://www.336699.live:1935/blocksix/4gtv-live208.stream/playlist.m3u8
History 歷史頻道,http://www.336699.live:1935/blocksix/4gtv-live026.stream/playlist.m3u8
電影原聲台CMusic,http://www.336699.live:1935/blocksix/4gtv-live031.stream/playlist.m3u8
TRACE Urban,http://www.336699.live:1935/blockfour/4gtv-4gtv082.stream/playlist.m3u8
MTV Live HD 音樂頻道,http://www.336699.live:1935/blocksix/4gtv-live025.stream/playlist.m3u8
Mezzo Live HD,http://www.336699.live:1935/blockfour/4gtv-4gtv083.stream/playlist.m3u8
CLASSICA 古典樂,http://www.336699.live:1935/blockfour/4gtv-4gtv059.stream/playlist.m3u8
東森購物1,http://www.336699.live:1935/blocksix/4gtv-live047.stream/playlist.m3u8
東森購物2,http://www.336699.live:1935/blocksix/4gtv-live046.stream/playlist.m3u8
東森購物2,https://raw.githubusercontent.com/ChiSheng9/iptv/master/TV19.m3u8
東森購物3,https://raw.githubusercontent.com/ChiSheng9/iptv/master/TV18.m3u8
MOMO購物1台,https://raw.githubusercontent.com/ChiSheng9/iptv/master/TV04.m3u8
MOMO購物2台,https://raw.githubusercontent.com/ChiSheng9/iptv/master/TV05.m3u8
Viva美好購物1台,https://raw.githubusercontent.com/ChiSheng9/iptv/master/TV54.m3u8
Viva美好購物2台,https://raw.githubusercontent.com/ChiSheng9/iptv/master/TV55.m3u8

📺新聞頻道,#genre#
壹新聞,http://220.134.196.147:8501/http/60.251.39.91:8081/hls/66/808/ch24.m3u8
壹新聞,http://220.134.196.147:8501/http/59.126.161.39:8081/hls/66/808/ch24.m3u8
壹新聞,http://60.251.59.180:8501/.m3u8


年代新聞,http://220.134.196.147:8530/http/60.251.39.91:8081/hls/67/809/ch27.m3u8
年代新聞,http://220.134.196.147:8510/http/60.251.39.91:8081/hls/67/809/ch27.m3u8
年代新聞,http://50.7.238.114:8278/niandainews_twn/playlist.m3u8?tid=m062d2322888417909285&ct=17874&tsum=da6e0908f8df0e85b37f9d93167b9fcd


東森新聞,http://220.134.196.147:8527/http/60.251.39.91:8081/hls/63/805/ch10.m3u8
東森新聞,http://220.134.196.147:8527/http/59.126.161.39:8081/hls/63/805/ch843.m3u8
東森新聞,http://220.134.196.147:8527/hls/65/807/ch843.m3u8
東森新聞,http://198.16.100.90:8278/ettvnews/playlist.m3u8?tid=MD1D1428989414289894&ct=19346&tsum=d8fc0ab62e1d97aaca4279883cb1101c
東森新聞,http://198.16.100.90:8278/ettvnews/playlist.m3u8?ct=19225&tid=MAEA2793211727932117&tsum=151345e2ab6bc0c89ac85598f1988cd3


中天新聞,http://211.23.114.106:8505/http/60.251.39.91:8081/hls/78/80/ch63max.m3u8
中天新聞,http://211.23.114.106:8567/http/60.251.39.91:8081/hls/78/80/ch63max.m3u8
中天新聞,https://raw.githubusercontent.com/ChiSheng9/iptv/master/TV49.m3u8
中天新聞,http://198.16.100.90:8278/ctinews/playlist.m3u8?tid=MA4A6611409066114090&ct=19226&tsum=f0333c4e69a7c5880f766ec9f29ca203
中天新聞,http://50.7.238.114:8278/ctinews/playlist.m3u8?tid=MA4A6611409066114090&ct=19226&tsum=f0333c4e69a7c5880f766ec9f29ca203


民視新聞,http://123.51.230.108:18663/http/60.251.39.91:8081/hls/73/815/ch51.m3u8
民視新聞,http://123.51.230.108:18663/.m3u8
民視新聞,http://220.134.196.147:8519/http/116.50.42.18:8081/hls/73/815/ch51.m3u8
民視新聞,http://220.134.196.147:8519/http/60.251.39.91:8081/hls/73/815/ch51.m3u8
民視新聞,https://ytm2.yuanhsing.cf/FTVCP.m3u8
民視新聞,https://raw.githubusercontent.com/ChiSheng9/iptv/master/TV17.m3u8


三立新聞,http://220.134.196.147:8541/http/60.251.39.91:8081/hls/65/807/ch18.m3u8
三立新聞,http://220.134.196.147:8506/http/60.251.39.91:8081/hls/65/807/ch18.m3u8
三立新聞,http://123.51.230.124:8531/http/60.251.39.91:8081/hls/65/807/ch18.m3u8
三立新聞,http://123.51.230.64:18543/http/192.168.1.9:8081/hls/65/807/ch18.m3u8

三立inews,https://raw.githubusercontent.com/ChiSheng9/iptv/master/TV01.m3u8


TVBS新聞,rtmp://9sv2.mine.nu/sat/tv551
TVBS新聞,http://220.134.196.147:8532/http/60.251.39.91:8081/hls/75/817/ch59.m3u8
TVBS新聞,http://220.134.196.147:8542/http/60.251.39.91:8081/hls/75/817/ch59.m3u8
TVBS新聞,http://38.64.72.148/hls/modn/list/4006/chunklist0.m3u8
TVBS新聞,http://38.64.72.148/hls/modn/list/4006/chunklist1.m3u8


TVBS,http://220.134.196.147:8521/http/60.251.39.91:8081/hls/75/817/ch58.m3u8
TVBS,http://220.134.196.147:8519/http/60.251.39.91:8081/hls/75/817/ch58.m3u8
TVBS,http://198.16.64.10:8278/tvbs/playlist.m3u8?tid=MDED5111960351119603&ct=19226&tsum=49931e2d3885c468d56ffae2c2db9e6e
TVBS,http://50.7.220.74:8278/tvbs/playlist.m3u8?tid=MDED5111960351119603&ct=19226&tsum=49931e2d3885c468d56ffae2c2db9e6e
TVBS,http://198.16.64.10:8278/tvbs/playlist.m3u8?tid=MF8F6036660760366607&ct=19225&tsum=28b93d22eed82973d85656ff0a6978c5


東森財經,rtmp://9sv2.mine.nu/sat/tv571
東森財經,http://123.51.230.108:18515/.m3u8
東森財經,http://123.51.229.65:18515/.m3u8
東森財經,http://123.51.230.64:18515/.m3u8
東森財經,http://60.251.33.252:18515/http/60.251.39.91:8081/hls/63/805/ch11.m3u8
東森財經,http://220.134.196.147:9531/http/60.251.39.91:8081/hls/63/805/ch11.m3u8
東森財經,https://ytm2.yuanhsing.cf/EBCFinancial.m3u8
東森財經,https://raw.githubusercontent.com/ChiSheng9/iptv/master/TV03.m3u8

非凡新聞,http://220.134.196.147:8557/http/60.251.39.91:8081/hls/75/817/ch57.m3u8
非凡新聞,http://220.134.196.147:8557/http/59.126.161.39:8081/hls/75/817/ch57.m3u8
非凡新聞,http://220.134.196.147:8558/http/60.251.39.91:8081/hls/75/817/ch57.m3u8
非凡新聞,http://220.134.196.147:8558/http/59.126.161.39:8081/hls/75/817/ch57.m3u8
非凡新聞,http://103.68.63.37:8278/feifannews_twn/playlist.m3u8?tid=ME3E6962233269622332&amp;ct=19225&amp;tsum=eea4d84db71e12ba91bfcf328f4dec9d
非凡新聞,http://103.68.63.37:8278/feifannews_twn/playlist.m3u8?tid=m050e7aad65f614336734&ct=17874&tsum=4ea1b829d195ac69a6c2ca51b21ae378

非凡商業,http://220.134.196.147:8572/http/60.251.39.91:8081/hls/74/816/ch56.m3u8


台視新聞,http://38.64.72.148/hls/modn/list/4013/chunklist0.m3u8
台視新聞,http://38.64.72.148/hls/modn/list/4013/chunklist1.m3u8
台視新聞,http://38.64.72.148/hls/modn/list/4013/playlist.m3u8
台視新聞,https://raw.githubusercontent.com/ChiSheng9/iptv/master/TV25.m3u8
台視新聞,http://50.7.238.114:8278/ttvnews_twn/playlist.m3u8?tid=MD9D1039476110394761&ct=19193&tsum=9f33349842788bfb7b0e90e93f7bf02c


中視新聞,http://awei.beimua.com/iptv.php?id=46
中視新聞,https://ytm2.yuanhsing.cf/twctvnews.m3u8
中視新聞,http://50.7.238.114:8278/ca73a13c37/playlist.m3u8?tid=mee3f06f682eb&ct=18335&tsum=7491cceca17c1e2af05824583855f8bd
中視新聞,http://50.7.238.114:8278/zhongshinews_twn/playlist.m3u8?tid=MD0D3377711133777111&ct=19249&tsum=ffaee3fe7040c96643b3c7f12bf2de8d
中視新聞,https://raw.githubusercontent.com/ChiSheng9/iptv/master/TV09.m3u8

華視新聞,http://awei.beimua.com/iptv.php?id=51
華視新聞,http://stream.dsichannel.com:80/hls/cts-news.m3u8
華視新聞,http://stream.dsichannel.com/hls/cts-news.m3u8


TAIWAN+,http://220.134.196.147:8534/http/60.251.39.91:8081/hls/61/803/ch03.m3u8
TAIWAN+,https://raw.githubusercontent.com/ChiSheng9/iptv/master/TV78.m3u8

寰宇新聞,http://awei.beimua.com/iptv.php?id=53
寰宇新聞,http://61.221.81.93:8513/http/59.126.161.39:8081/hls/76/818/ch62.m3u8
寰宇新聞,http://220.134.196.147:8511/http/60.251.39.91:8081/hls/76/818/ch62.m3u8
寰宇新聞,http://220.134.196.147:8520/http/60.251.39.91:8081/hls/76/818/ch62.m3u8
寰宇新聞,http://220.134.196.147:9515/http/60.251.39.91:8081/hls/76/818/ch62.m3u8
寰宇新聞,https://ytm2.yuanhsing.cf/GlobalNewsTV.m3u8
寰宇新聞,https://raw.githubusercontent.com/ChiSheng9/iptv/master/TV02.m3u8

鏡新聞Mnews,http://awei.beimua.com/iptv.php?id=52
鏡新聞Mnews,https://ytm2.yuanhsing.cf/mnews.m3u8
鏡新聞Mnews,https://raw.githubusercontent.com/etag2000/IPTV/YTlive/daai2.m3u8
鏡新聞Mnews,https://raw.githubusercontent.com/ChiSheng9/iptv/master/TV70.m3u8


NHK,http://60.251.33.252:18525/http/60.251.39.91:8081/hls/62/804/ch06.m3u8
NHK,http://220.134.196.147:8510/http/60.251.39.91:8081/hls/62/804/ch06.m3u8
NHK,http://123.51.230.108:18525/.m3u8

SBN全球財經,https://raw.githubusercontent.com/ChiSheng9/iptv/master/TV60.m3u8
SBN全球財經,http://www.336699.live:1935/blocksix/4gtv-live060.stream/playlist.m3u8

ABC news,https://raw.githubusercontent.com/ChiSheng9/iptv/master/TV24.m3u8
DW德國之聲,https://raw.githubusercontent.com/ChiSheng9/iptv/master/TV08.m3u8
DW德國之聲,http://www.336699.live:1935/blockfour/4gtv-live071.stream/playlist.m3u8
Euronews,https://raw.githubusercontent.com/ChiSheng9/iptv/master/TV37.m3u8
France 24,https://raw.githubusercontent.com/ChiSheng9/iptv/master/TV38.m3u8
NBC NEWS,https://raw.githubusercontent.com/ChiSheng9/iptv/master/TV39.m3u8
news18,https://raw.githubusercontent.com/ChiSheng9/iptv/master/TV40.m3u8
Bloomberg News,https://raw.githubusercontent.com/ChiSheng9/iptv/master/TV44.m3u8
TBSnews,https://raw.githubusercontent.com/ChiSheng9/iptv/master/TV45.m3u8
ANNnews,https://raw.githubusercontent.com/ChiSheng9/iptv/master/TV48.m3u8
CNA亞洲新聞,https://raw.githubusercontent.com/ChiSheng9/iptv/master/TV52.m3u8
HTB Hokkaido NEWS24,https://raw.githubusercontent.com/ChiSheng9/iptv/master/TV53.m3u8
ALJAZEERA,https://raw.githubusercontent.com/ChiSheng9/iptv/master/TV59.m3u8
KBSnews,https://raw.githubusercontent.com/ChiSheng9/iptv/master/TV61.m3u8

半島國際新聞,http://www.336699.live:1935/blockfour/litv-ftv10.stream/playlist.m3u8
VOA美國之音,http://www.336699.live:1935/blockfour/litv-ftv03.stream/playlist.m3u8
CNBC Asia 財經,http://www.336699.live:1935/blocksix/4gtv-live130.stream/playlist.m3u8
CNN頭條新聞,http://www.336699.live:1935/blocksix/4gtv-live203.stream/playlist.m3u8
CNN國際新聞,http://www.336699.live:1935/blocksix/4gtv-live204.stream/playlist.m3u8
Lifetime 娛樂頻道,http://www.336699.live:1935/blocksix/4gtv-live029.stream/playlist.m3u8
ARIRANG阿里郎頻道,http://www.336699.live:1935/blockfour/4gtv-4gtv079.stream/playlist.m3u8

🎞️戲劇電影,#genre#
東森戲劇,http://220.134.196.147:8536/http/116.50.42.18:8066/hls/64/806/ch13.m3u8
東森戲劇,http://220.134.196.147:8538/http/116.50.42.18:8066/hls/64/806/ch13.m3u8
東森戲劇,http://123.51.229.65:18538/.m3u8
東森戲劇,http://60.251.33.252:18538/http/116.50.42.18:8066/hls/64/806/ch13.m3u8

龍華戲劇,http://220.134.196.147:8548/http/60.251.39.91:8081/hls/210/10010/cstv10.m3u8
龍華戲劇,http://211.23.114.106:8508/http/116.50.42.18:8088/hls/210/10010/cstv10.m3u8
龍華戲劇,http://220.134.196.147:9547/http/116.50.42.18:8088/hls/210/10010/cstv10.m3u8


龍華偶像,http://220.134.196.147:8517/http/116.50.42.18:8088/hls/210/10012/cstv12.m3u8
龍華偶像,http://211.23.114.106:8510/http/116.50.42.18:8088/hls/210/10012/cstv12.m3u8
龍華偶像,http://123.51.230.108:18573/http/60.251.39.91:8081/hls/210/10012/cstv12.m3u8
龍華偶像,http://220.134.196.147:9534/http/116.50.42.18:8088/hls/210/10012/cstv12.m3u8
龍華偶像,http://220.134.196.147:9564/http/116.50.42.18:8088/hls/210/10012/cstv12.m3u8


龍華日韓,http://220.134.196.147:8523/http/60.251.39.91:8081/hls/210/10011/cstv11.m3u8
龍華日韓,http://211.23.114.106:8509/http/60.251.39.91:8081/hls/210/10011/cstv11.m3u8
龍華日韓,http://123.51.230.108:18551/http/60.251.39.91:8081/hls/210/10011/cstv11.m3u8
龍華日韓,http://220.134.196.147:9542/http/60.251.39.91:8081/hls/210/10011/cstv11.m3u8
龍華日韓,http://www.336699.live:1935/blockfour/litv-longturn11.stream/playlist.m3u8

龍華電影,http://220.134.196.147:8530/http/60.251.39.91:8081/hls/210/10014/cstv14.m3u8
龍華電影,http://220.134.196.147:9556/http/116.50.42.18:8066/hls/210/10014/cstv14.m3u8
龍華電影,http://220.134.196.147:9556/http/60.251.39.91:8081/hls/210/10014/cstv14.m3u8
龍華電影,http://218.32.47.179:18556/http/192.168.1.9:8066/hls/210/10014/cstv14.m3u8


緯來戲劇,http://220.134.196.147:8504/http/60.251.39.91:8081/hls/69/811/ch33.m3u8
緯來戲劇,http://220.134.196.147:9533/http/60.251.39.91:8081/hls/69/811/ch33.m3u8
緯來戲劇,http://220.134.196.147:9542/http/60.251.39.91:8081/hls/69/811/ch33.m3u8

緯來日本,http://awei.beimua.com/iptv.php?id=74
緯來日本,rtmp://219.80.97.77:1935/sat/tv771
緯來日本,rtmp://119.81.124.89:1935/sat/tv771
緯來日本,http://211.23.114.106:8503/http/60.251.39.91:8081/hls/69/811/ch34.m3u8
緯來日本,http://220.134.196.147:8539/http/60.251.39.91:8081/hls/69/811/ch34.m3u8

緯來育樂,http://awei.beimua.com/iptv.php?id=75
緯來育樂,rtmp://119.81.124.89:1935/sat/tv701
緯來育樂,rtmp://219.80.97.77:1935/sat/tv701
緯來育樂,http://220.134.196.147:8547/.m3u8
緯來育樂,http://211.23.114.106:8502/60.251.39.91:8081/hls/68/810/ch30.m3u8
緯來育樂,http://123.51.229.65:18541/http/59.120.8.187:8081/hls/68/810/ch30.m3u8
緯來育樂,http://60.251.33.252:18541/http/60.251.39.91:8081/hls/68/810/ch30.m3u8
緯來育樂,http://60.251.59.180:18541/http/59.120.8.187:8081/hls/68/810/ch30.m3u8
緯來育樂,http://60.251.33.252:18561/http/60.251.39.91:8081/hls/68/810/ch30.m3u8

緯來電影,http://220.134.196.147:8550/http/60.251.39.91:8081/hls/69/811/ch35.m3u8
緯來电影,http://220.134.196.147:9571/http/59.120.8.187:8081/hls/69/811/ch35.m3u8
緯來电影,http://220.134.196.147:9571/http/60.251.39.91:8081/hls/69/811/ch35.m3u8

EYETV戲劇,http://50.7.238.114:8278/eyetvxiju_twn/playlist.m3u8?tid=m379e8846d31b14432367&ct=17874&tsum=2c4c2acd16a5a5e00797ad6f4c4cb586

HBO,http://4ksuper.live/play/live.php?mac=00:1A:79:50:63:9E&extension=ts&stream=941648
HBO Hits,http://4ksuper.live/play/live.php?mac=00:1A:79:50:63:9E&extension=ts&stream=941647
HBO Family,http://4ksuper.live/play/live.php?mac=00:1A:79:50:63:9E&extension=ts&stream=941646
HBO Signature,http://4ksuper.live/play/live.php?mac=00:1A:79:50:63:9E&extension=ts&stream=941645
Cinemax,http://4ksuper.live/play/live.php?mac=00:1A:79:50:63:9E&extension=ts&stream=941659
卫视电影台,http://4ksuper.live/play/live.php?mac=00:1A:79:50:63:9E&extension=ts&stream=941625

HBO,http://220.134.196.147:9520/http/60.251.39.91:8081/hls/71/813/ch41.m3u8
HBO,http://211.23.114.106:8511/http/60.251.39.91:8081/hls/71/813/ch41.m3u8
HBO,http://220.134.196.147:9518/http/60.251.39.91:8081/hls/71/813/ch41.m3u8

CINEMAX,http://220.134.196.147:8535/http/60.251.39.91:8081/hls/71/813/ch42.m3u8
CINEMAX,http://220.134.196.147:9518/http/60.251.39.91:8081/hls/71/813/ch42.m3u8

Star Moives Gold,http://220.134.196.147:8520/http/60.251.39.91:8081/hls/62/804/ch08.m3u8
Star Moives Gold,http://220.134.196.147:9521/http/60.251.39.91:8081/hls/62/804/ch08.m3u8
Star Moives Gold,http://220.134.196.147:9534/http/116.50.42.18:8081/hls/62/804/ch08.m3u8

AXN,http://220.134.196.147:8526/http/60.251.39.91:8081/hls/71/813/ch43.m3u8
AXN,http://220.134.196.147:9519/http/60.251.39.91:8081/hls/71/813/ch43.m3u8

好萊塢電影,http://220.134.196.147:8543/http/60.251.39.91:8081/hls/74/816/ch55.m3u8
好萊塢電影,http://220.134.196.147:9523/http/60.251.39.91:8081/hls/74/816/ch55.m3u8
好萊塢電影,http://220.134.196.147:9539/http/60.251.39.91:8081/hls/74/816/ch55.m3u8


衛視電影,http://220.134.196.147:8529/http/60.251.39.91:8081/hls/62/804/ch07.m3u8
衛視電影,http://220.134.196.147:9549/http/60.251.39.91:8081/hls/62/804/ch07.m3u8
衛視電影,http://220.134.196.147:9549/http/116.50.42.18:8081/hls/62/804/ch07.m3u8
衛視電影,http://220.134.196.147:9553/http/59.120.8.187:8081/hls/62/804/ch07.m3u8 
衛視電影,http://220.134.196.147:9553/http/60.251.39.91:8081/hls/62/804/ch07.m3u8


星衛電影 HD,http://23.237.10.66:16359/http/60.251.39.91:8081/hls/61/803/ch02.m3u8



👶兒少頻道,#genre#

MOMO親子,http://123.51.230.124:8536/http/60.251.39.91:8081/hls/70/812/ch40.m3u8
MOMO親子,http://211.23.114.106:8504/http/116.50.42.18:8088/hls/70/812/ch40.m3u8
MOMO親子,http://220.134.196.147:9573/http/60.251.39.91:8081/hls/70/812/ch40.m3u8
MOMO親子,http://220.134.196.147:9524/http/60.251.39.91:8081/hls/70/812/ch40.m3u8
MOMO親子,http://220.134.196.147:9523/http/60.251.39.91:8081/hls/70/812/ch40.m3u8


東森幼幼,http://220.134.196.147:9588/http/60.251.39.91:8081/hls/63/805/ch09.m3u8
東森幼幼,http://220.134.196.147:9515/http/60.251.39.91:8081/hls/63/805/ch09.m3u8
東森幼幼,http://220.134.196.147:9563/http/60.251.39.91:8081/hls/63/805/ch09.m3u8


龍華卡通,http://211.23.114.106:8506/http/116.50.42.18:8088/hls/210/10013/cstv13.m3u8
龍華卡通,http://220.134.196.147:8542/http/116.50.42.18:8088/hls/210/10013/cstv13.m3u8


Baby TV,http://220.134.196.147:8556/http/60.251.39.91:8078/hls/35/80/babytv.m3u8
Baby TV,http://220.134.196.147:9524/http/60.251.39.91:8078/hls/35/80/babytv.m3u8

ANIMAX,http://220.134.196.147:9526/http/60.251.39.91:8081/hls/70/812/ch39.m3u8
ANIMAX,http://220.134.196.147:9516/http/60.251.39.91:8081/hls/70/812/ch39.m3u8

靖天卡通,http://www.336699.live:1935/blockfour/4gtv-4gtv044.stream/playlist.m3u8
靖天卡通,http://50.7.238.114:8278/jingtiancartoon_twn/playlist.m3u8?tid=m1465dab025b5&ct=18335&tsum=ba935e583d90bfbe1d1d9662e9ac600c
靖天卡通,http://50.7.238.114:8278/jingtiancartoon_twn/playlist.m3u8?tid=MD1D2636832926368329&ct=19226&tsum=22c17cfa6920f0b4a9d45746ac25c547

CN卡通,http://www.336699.live:1935/blocksix/4gtv-live205.stream/playlist.m3u8
經典卡通,http://www.336699.live:1935/blocksix/4gtv-live022.stream/playlist.m3u8
精選動漫,http://www.336699.live:1935/blocksix/4gtv-live024.stream/playlist.m3u8
LiveABC互動英語頻道,http://www.336699.live:1935/blocksix/4gtv-live030.stream/playlist.m3u8
i-Fun動漫,http://www.336699.live:1935/blockfour/litv-ftv15.stream/playlist.m3u8


亞洲旅遊,http://220.134.196.147:8552/http/60.251.39.91:8081/hls/76/818/ch61.m3u8
亞洲旅遊,http://220.134.196.147:9523/http/60.251.39.91:8081/hls/76/818/ch61.m3u8

國家地理,http://220.134.196.147:8514/http/60.251.39.91:8081/hls/61/803/ch01.m3u8
國家地理,http://220.134.196.147:9569/http/60.251.39.91:8081/hls/61/803/ch01.m3u8
國家地理,http://218.32.47.179:18509/http/60.251.39.91:8081/hls/61/803/ch01.m3u8


🎎日本頻道,#genre#
日本テレビ,http://redlabmcdn.s.llnwi.net/nv02/ryowa3hd/playlist.m3u8
日本テレビ,https://cdnul194.cloudrsst.com/live/kanto_nippon_1080/playlist.m3u8
日本テレビ,https://cdnul194.cloudrsst.com/live/kanto_nippon_720/playlist.m3u8
テレビ朝日,http://redlabmcdn.s.llnwi.net/nv02/ryowa4hd/playlist.m3u8
テレビ朝日,http://redlabmcdn.s.llnwi.net/nv02/ryowa4hd/index.m3u8
テレビ朝日,https://cdnul194.cloudrsst.com/live/kanto_tv_asahi_1080/playlist.m3u8
テレビ朝日,https://cdnul194.cloudrsst.com/live/kanto_tv_asahi_720/playlist.m3u8
テレビ朝日,https://cdn-th136.cloudrsst.com/live/kanto_tv_asahi_1080/playlist.m3u8
TBSテレビ,http://redlabmcdn.s.llnwi.net/nv02/ryowa5hd/playlist.m3u8
TBSテレビ,https://cdnul194.cloudrsst.com/live/kanto_tbs_1080/playlist.m3u8
TBSテレビ,https://cdnul194.cloudrsst.com/live/kanto_tbs_720/playlist.m3u8
TBSテレビ,https://tbs2.mov3.co/hls/tbs.m3u8
テレビ東京,http://redlabmcdn.s.llnwi.net/nv02/ryowa6hd/playlist.m3u8
テレビ東京,http://redlabmcdn.s.llnwi.net/nv02/ryowa6hd/index.m3u8
テレビ東京,https://cdnul194.cloudrsst.com/live/kanto_tv_tokyo_1080/playlist.m3u8
テレビ東京,https://cdnul194.cloudrsst.com/live/kanto_tv_tokyo_720/playlist.m3u8

フジテレビ,http://redlabmcdn.s.llnwi.net/nv02/ryowa7hd/index.m3u8
フジテレビ,https://cdnul194.cloudrsst.com/live/kanto_fuji_1080/playlist.m3u8
フジテレビ,https://cdnul194.cloudrsst.com/live/kanto_fuji_720/playlist.m3u8
毎日放送,https://cdnul194.cloudrsst.com/live/kansi_mbs_1080/playlist.m3u8
毎日放送,https://cdnul194.cloudrsst.com/live/kansi_mbs_720/playlist.m3u8
ABCテレビ,https://cdnul194.cloudrsst.com/live/kansi_abc_asahi_1080/playlist.m3u8
ABCテレビ,https://cdnul194.cloudrsst.com/live/kansi_abc_asahi_720/playlist.m3u8
テレビ大阪,https://cdnul194.cloudrsst.com/live/kansi_tv_osaka_1080/playlist.m3u8
テレビ大阪,https://cdnul194.cloudrsst.com/live/kansi_tv_osaka_720/playlist.m3u8
関西テレビ,https://cdnul194.cloudrsst.com/live/kansi_tv_1080/playlist.m3u8
関西テレビ,https://cdnul194.cloudrsst.com/live/kansi_tv_720/playlist.m3u8
読売テレビ,https://cdnul194.cloudrsst.com/live/kansi_yomiuri_1080/playlist.m3u8
読売テレビ,https://cdnul194.cloudrsst.com/live/kansi_yomiuri_720/playlist.m3u8
サンテレビ,https://cdnul194.cloudrsst.com/live/kansi_sun_tv_1080/playlist.m3u8
サンテレビ,https://cdnul194.cloudrsst.com/live/kansi_sun_tv_720/playlist.m3u8
アニマックス,https://cdnul194.cloudrsst.com/live/janimax_540/playlist.m3u8
アニマックス,https://cdnul194.cloudrsst.com/live/janimax_720/playlist.m3u8
群马テレビ,https://movie.mcas.jp/switcher/smil:mcas8.smil/chunklist_b1800000.m3u8
Weather News,https://movie.mcas.jp/mcas/smil:wn1.smil/master.m3u8
Weather News,https://movie.mcas.jp/mcas/wn1_2/master.m3u8

スカイA,https://stream01.willfonk.com/live_playlist.m3u8?cid=CS250&r=FHD&ccode=JP&m=d0:20:20:04:35:cc&t=0d6938cb3dcf4b79848bc1753a59daf1

NHK-G综合,https://cdnul194.cloudrsst.com/live/kanto_nhk_g_1080/playlist.m3u8
NHK-G综合,https://cdnul194.cloudrsst.com/live/kanto_nhk_g_720/playlist.m3u8
NHK-G综合,http://redlabmcdn.s.llnwi.net/nv02/ryowa2hd/playlist.m3u8
NHK-G综合-大阪,https://cdnul194.cloudrsst.com/live/kansi_nhk_g_720/playlist.m3u8
NHK-E教育,https://cdnul194.cloudrsst.com/live/kanto_nhk_edu_1080/playlist.m3u8
NHK-E教育,https://cdnul194.cloudrsst.com/live/kanto_nhk_edu_720/playlist.m3u8
NHK-E教育,http://redlabmcdn.s.llnwi.net/nv02/ryowa1hd/playlist.m3u8
NHK-E教育,https://stream01.willfonk.com/live_playlist.m3u8?cid=BS292&r=FHD&ccode=JP&m=d0:20:20:04:35:cc&t=0d6938cb3dcf4b79848bc1753a59daf1
NHK World Japan,http://nhkwlive-xjp.akamaized.net/hls/live/2003458/nhkwlive-xjp-en/index_1M.m3u8
NHK World Japan,https://nhkwlive-ojp.akamaized.net/hls/live/2003459/nhkwlive-ojp-en/index_4M.m3u8
NHK World Japan,https://nhkwlive-ojp.akamaized.net/hls/live/2003459/nhkwlive-ojp-en/index.m3u8
NHK BS1,http://redlabmcdn.s.llnwi.net/nv02/bs01hd/index.m3u8
NHK BS1,https://cdnul194.cloudrsst.com/live/nhkbs1_720/playlist.m3u8
NHK BS1,https://cdnul194.cloudrsst.com/live/nhkbs1_540/playlist.m3u8
NHK BSP,http://redlabmcdn.s.llnwi.net/nv02/bs02hd/index.m3u8
NHK BSP,http://redlabmcdn.s.llnwi.net/nv02/bs02hd/playlist.m3u8
NHK BSP,https://cdnul194.cloudrsst.com/live/bspremium_540/playlist.m3u8
NHK BSP,https://cdnul194.cloudrsst.com/live/bspremium_720/playlist.m3u8
BS日テレ,http://redlabmcdn.s.llnwi.net/nv02/bs03hd/index.m3u8
BS日テレ,http://redlabmcdn.s.llnwi.net/nv02/bs03hd/playlist.m3u8
BS日テレ,https://cdnul194.cloudrsst.com/live/bsnihontv_540/playlist.m3u8
BS TV Tokyo,https://stream01.willfonk.com/live_playlist.m3u8?cid=BS297&r=FHD&ccode=JP&m=d0:20:20:04:35:cc&t=0d6938cb3dcf4b79848bc1753a59daf1
BS 朝日,https://cdnul194.cloudrsst.com/live/bsasahi_540/playlist.m3u8
BS 朝日,http://redlabmcdn.s.llnwi.net/nv02/bs04hd/playlist.m3u8
BS 朝日,http://redlabmcdn.s.llnwi.net/nv02/bs04hd/index.m3u8
BS TBS,http://redlabmcdn.s.llnwi.net/nv02/bs05hd/index.m3u8
BS TBS,http://redlabmcdn.s.llnwi.net/nv02/bs05hd/playlist.m3u8
BS TBS,https://cdnul194.cloudrsst.com/live/bstbs_540/playlist.m3u8
BSテレ東,http://redlabmcdn.s.llnwi.net/nv02/bs06hd/index.m3u8
BSテレ東,https://cdnul194.cloudrsst.com/live/bsjapan_720/playlist.m3u8
BSテレ東,http://redlabmcdn.s.llnwi.net/nv02/bs06hd/playlist.m3u8
BSテレ東,https://stream01.willfonk.com/live_playlist.m3u8?cid=BS171&r=FHD&ccode=JP&m=d0:20:20:04:35:cc&t=0d6938cb3dcf4b79848bc1753a59daf1
BSフジ,http://redlabmcdn.s.llnwi.net/nv02/bs07hd/index.m3u8
BSフジ,http://redlabmcdn.s.llnwi.net/nv02/bs07hd/playlist.m3u8
BSフジ,https://cdnul194.cloudrsst.com/live/bsfuji_540/playlist.m3u8
BSフジ,https://cdnul194.cloudrsst.com/live/bsfuji_720/playlist.m3u8
BS 12,http://redlabmcdn.s.llnwi.net/nv02/bs08hd/playlist.m3u8
BS 12,http://redlabmcdn.s.llnwi.net/nv02/bs08hd/index.m3u8
BSジャパン,https://cdnul194.cloudrsst.com/live/bsjapan_540/playlist.m3u8
BSジャパン,https://cdnul194.cloudrsst.com/live/bsjapan_720/playlist.m3u8

WOWOWプライム,https://cdnul194.cloudrsst.com/live/wowprime_720/playlist.m3u8
WOWOWプライム,https://stream01.willfonk.com/live_playlist.m3u8?cid=BS191&r=FHD&ccode=JP&m=d0:20:20:04:35:cc&t=0d6938cb3dcf4b79848bc1753a59daf1
WOWOWライブ,https://cdnul194.cloudrsst.com/live/wowlive_720/playlist.m3u8
WOWOWライブ,https://cdnul194.cloudrsst.com/live/wowlive_540/playlist.m3u8
WOWOWライブ,https://stream01.willfonk.com/live_playlist.m3u8?cid=BS192&r=FHD&ccode=JP&m=d0:20:20:04:35:cc&t=0d6938cb3dcf4b79848bc1753a59daf1
WOWOWシネマ,https://cdnul194.cloudrsst.com/live/wowcinema_720/playlist.m3u8
WOWOWシネマ,https://stream01.willfonk.com/live_playlist.m3u8?cid=BS193&r=FHD&ccode=JP&m=d0:20:20:04:35:cc&t=0d6938cb3dcf4b79848bc1753a59daf1
WOWOW Plus,https://cdnul194.cloudrsst.com/live/cinefil_wowow_720/playlist.m3u8

Tokyo MX 1,https://movie.mcas.jp/mcas/mx1_2/master.m3u8
Tokyo MX 1,https://movie.mcas.jp/mcas/mx1_2/chunklist.m3u8
Tokyo MX 1,http://redlabmcdn.s.llnwi.net/nv02/ryowa8hd/playlist.m3u8
Tokyo MX 1,http://redlabmcdn.s.llnwi.net/nv02/ryowa8hd/index.m3u8
Tokyo MX 1,https://cdnul194.cloudrsst.com/live/kanto_tokyo_mx1_1080/playlist.m3u8
Tokyo MX 1,https://cdnul194.cloudrsst.com/live/kanto_tokyo_mx1_720/playlist.m3u8
Tokyo MX 2,https://movie.mcas.jp/mcas/mx2_2/master.m3u8
Tokyo MX 2,https://movie.mcas.jp/mcas/mx2_2/chunklist.m3u8
MX Live,https://movie.mcas.jp/mcas/mx_live_2/master.m3u8

Disney,http://redlabmcdn.s.llnwi.net/nv02/bs13hd/index.m3u8
Animax,http://redlabmcdn.s.llnwi.net/nv02/bs14hd/index.m3u8
Animax,http://redlabmcdn.s.llnwi.net/nv02/bs14hd/playlist.m3u8
Animax,https://stream01.willfonk.com/live_playlist.m3u8?cid=BS236&r=FHD&ccode=JP&m=d0:20:20:04:35:cc&t=0d6938cb3dcf4b79848bc1753a59daf1
kids station,https://stream01.willfonk.com/live_playlist.m3u8?cid=CS330&r=FHD&ccode=JP&m=d0:20:20:04:35:cc&t=0d6938cb3dcf4b79848bc1753a59daf1
AT-X,https://sub2.neetball.net/live/neet.m3u8
チャンネルNECO,https://stream01.willfonk.com/live_playlist.m3u8?cid=CS223&r=FHD&ccode=JP&m=d0:20:20:04:35:cc&t=0d6938cb3dcf4b79848bc1753a59daf1
チャンネル銀河,https://stream01.willfonk.com/live_playlist.m3u8?cid=CS305&r=FHD&ccode=JP&m=d0:20:20:04:35:cc&t=0d6938cb3dcf4b79848bc1753a59daf1
Star 1,https://stream01.willfonk.com/live_playlist.m3u8?cid=BS200&r=FHD&ccode=JP&m=d0:20:20:04:35:cc&t=0d6938cb3dcf4b79848bc1753a59daf1
Star 1,http://redlabmcdn.s.llnwi.net/nv02/bs09hd/index.m3u8
Star 1,http://redlabmcdn.s.llnwi.net/nv02/bs09hd/playlist.m3u8
Star 1,https://cdnul194.cloudrsst.com/live/starch1_720/playlist.m3u8
Star 2,https://stream01.willfonk.com/live_playlist.m3u8?cid=BS201&r=FHD&ccode=JP&m=d0:20:20:04:35:cc&t=0d6938cb3dcf4b79848bc1753a59daf1
Star 2,https://cdnul194.cloudrsst.com/live/starch2_720/playlist.m3u8
Star 2,http://redlabmcdn.s.llnwi.net/nv02/bs10hd/index.m3u8
Star 2,http://redlabmcdn.s.llnwi.net/nv02/bs10hd/playlist.m3u8
Star 3,https://stream01.willfonk.com/live_playlist.m3u8?cid=BS202&r=FHD&ccode=JP&m=d0:20:20:04:35:cc&t=0d6938cb3dcf4b79848bc1753a59daf1
Star 3,https://cdnul194.cloudrsst.com/live/starch3_720/playlist.m3u8

LaLaTV,https://stream01.willfonk.com/live_playlist.m3u8?cid=CS314&r=FHD&ccode=JP&m=d0:20:20:04:35:cc&t=0d6938cb3dcf4b79848bc1753a59daf1
GolfNetwork,https://stream01.willfonk.com/live_playlist.m3u8?cid=CS262&r=FHD&ccode=JP&m=d0:20:20:04:35:cc&t=0d6938cb3dcf4b79848bc1753a59daf1
Music ON TV,https://stream01.willfonk.com/live_playlist.m3u8?cid=CS325&r=FHD&ccode=JP&m=d0:20:20:04:35:cc&t=0d6938cb3dcf4b79848bc1753a59daf1

声优广播,http://www.uniqueradio.jp/agplayerf/hls/Active.m3u8
QVC Japan,http://cdn-live1.qvc.jp/iPhone/800/800.m3u8
QVC Japan,https://cdn-live1.qvc.jp/iPhone/1501/1501.m3u8

Shop Channel,https://stream3.shopch.jp/HLS/master.m3u8
日本購物1,http://stream1.shopch.jp/HLS/out1/prog_index.m3u8
日本購物2,http://stream1.shopch.jp/HLS/out2/prog_index.m3u8
日本購物3,http://stream1.shopch.jp/HLS/out3/prog_index.m3u8
日本購物4,http://stream1.shopch.jp/HLS/out4/prog_index.m3u8

🎈韓國頻道,#genre#
ArirangTV,http://amdlive-ch01.ctnd.com.edgesuite.net/arirang_1ch/smil:arirang_1ch.smil/playlist.m3u8
ArirangTV,http://amdlive-ch02.ctnd.com.edgesuite.net/arirang_1ch/smil:arirang_1ch.smil/playlist.m3u8
ArirangTV,http://amdlive-ch03.ctnd.com.edgesuite.net/arirang_1ch/smil:arirang_1ch.smil/playlist.m3u8
ArirangTV,http://amdlive.ctnd.com.edgesuite.net/arirang_1ch/smil:arirang_1ch.smil/playlist.m3u8



KBS1,https://raw.githubusercontent.com/ChiSheng9/iptv/master/TV61.m3u8
KBS1,http://pull-l3-cny.douyincdn.com/third/stream-da1f0d9f19a7ad52a9675a58e08de24b.m3u8
KBS1,http://pull-l3-cny.douyincdn.com/third/stream-da1f0d9f19a7ad52a9675a58e08de24b.m3u8
KBS1,http://ye23.vip/z7z8/2021/kbs2020.php?id=1
KBS2,http://ye23.vip/z7z8/2021/kbs2020.php?id=2
KBS2,http://pull-l3-cny.douyincdn.com/third/stream-9accc1d4ae7e4bfa7350249c05a0e3af.m3u8
KBS2,http://pull-l3-cny.douyincdn.com/third/stream-9accc1d4ae7e4bfa7350249c05a0e3af.m3u8
MBC,http://pull-l3-cny.douyincdn.com/third/stream-4f444d2b71e8fbab0a8802b9fa23ea5b.m3u8
MBC,http://vod.mpmbc.co.kr:1935/live/encoder-tv/playlist.m3u8
MBC,http://123.254.72.24:1935/tvlive/livestream2/playlist.m3u8
MBC,http://pull-l3-cny.douyincdn.com/third/stream-4f444d2b71e8fbab0a8802b9fa23ea5b.m3u8



KBS World,http://ye23.vip/z7z8/2021/kbs2020.php?id=3
KBS World,https://kbsworld-ott.akamaized.net:443/hls/live/2002341/kbsworld/01.m3u8
KBS World,https://livecdn.fptplay.net:443/sdb/kbs_hls.smil/playlist.m3u8
TJB SBS,http://ye23.win/iptv/korea2021.php?id=TJB
CJB SBS,http://ye23.win/iptv/korea2021.php?id=CJB
KBC SBS,http://ye23.win/iptv/korea2021.php?id=KBC
SBS,http://pull-l3-cny.douyincdn.com/third/stream-d10b659225b3738937372b8835b94f1c.m3u8
SBS,http://ye23.win/iptv/sbs5.1.php?id=S01
SBS,http://pull-l3-cny.douyincdn.com/third/stream-d10b659225b3738937372b8835b94f1c.m3u8
SBS-Sports,http://ye23.win/iptv/sbs5.1.php?id=S02
SBS-Plus,http://ye23.win/iptv/sbs5.1.php?id=S03
SBS-Fun,http://ye23.win/iptv/sbs5.1.php?id=S04
SBS-Golf,http://ye23.win/iptv/sbs5.1.php?id=S05
SBS-Biz,http://ye23.win/iptv/sbs5.1.php?id=S06
SBS-MTV,http://ye23.win/iptv/sbs5.1.php?id=S09
SBS-GorealraM,http://ye23.win/iptv/sbs5.1.php?id=S19
SBS-POWER,http://ye23.win/iptv/sbs5.1.php?id=S07
SBS-LOVE,http://ye23.win/iptv/sbs5.1.php?id=S08
KBC 광주방송 (SBS 光州),http://119.200.131.11:1935/KBCTV/tv/playlist.m3u8
국악방송,http://mgugaklive.nowcdn.co.kr/gugakvideo/gugakvideo.stream/playlist.m3u8
CTS기독교TV,https://d34t5yjz1ooymj.cloudfront.net/out/v1/875039d5eba0478fa8375a06b3aa5a37/index.m3u8
JIBS SBS,http://123.140.197.22/stream/1/play.m3u8

JTBC,https://cdnul194.cloudrsst.com/live/jtbc_720/playlist.m3u8

TBS Seoul,https://cdntv.tbs.seoul.kr/tbs/tbs_tv_web.smil/playlist.m3u8
CBS,http://cbs-live.gscdn.com/cbs-live/cbs-live.stream/playlist.m3u8
MTN,http://183.110.27.87/mtnlive/720/playlist.m3u8
MTN,http://ye23.win/iptv/korea2021.php?id=MTN
NBS Korea Agricultural Broadcasting,https://media.joycorp.co.kr:4443/live/ngrp:live_all/playlist.m3u8
NBS Korea Agricultural Broadcasting,https://media.joycorp.co.kr:4443/live/live_720p/playlist.m3u8
TJB 대전방송 (SBS 大田),http://1.245.74.5:1935/live/tv/.m3u8
한국선거방송,http://necgokr2-724.acs.wecandeo.com/ms/2528/724/index_1.m3u8
KCTV 광주,http://119.77.96.184:1935/chn05/chn05/chunklist.m3u8
KCTV 광주,http://ye23.win/iptv/korea2021.php?id=KCTV
Good TV,http://ye23.win/iptv/korea2021.php?id=Good
cpbc,http://ye23.win/iptv/korea2021.php?id=cpbc
bbstv,http://ye23.win/iptv/korea2021.php?id=bbstv
myStream,http://ye23.win/iptv/korea2021.php?id=myStream

FTV,http://ye23.win/iptv/korea2021.php?id=FTV
Channel A,http://ye23.win/iptv/korea2021.php?id=Channela
korea TV,http://ye23.win/iptv/korea2021.php?id=korea
YTN,http://ye23.win/iptv/korea2021.php?id=ytn
Channel A,http://ye23.win/iptv/korea2021.php?id=Channel
TBS,http://ye23.win/iptv/korea2021.php?id=TBS-a
TBS,http://58.234.158.60:1935/catvlive/myStream/playlist.m3u8

EBS 1,http://ye23.win/iptv/korea2021.php?id=EBS1
EBS 2,http://ye23.win/iptv/korea2021.php?id=EBS2
EBS i,http://ye23.win/iptv/korea2021.php?id=EBSi
EBS+2,http://ye23.win/iptv/korea2021.php?id=EBS_2
EBS E,http://ye23.win/iptv/korea2021.php?id=EBS_E
EBS KIDS,http://ye23.win/iptv/korea2021.php?id=EBS_KIDS
dema,http://ye23.win/iptv/korea2021.php?id=dema
阿裡郎WORLD,http://ye23.win/iptv/korea2021.php?id=arirang_1
阿裡郎WORLD,http://ye23.win/iptv/korea2021.php?id=arirang_2


📡  廣播電台,#genre#
飛碟電臺,http://stream.rcs.revma.com/em90w4aeewzuv
中廣流行網,http://stream.rcs.revma.com/aw9uqyxy2tzuv
中廣音樂網,http://stream.rcs.revma.com/ks4vsmg3qtzuv
中廣新聞網,http://stream.rcs.revma.com/78fm9wyy2tzuv

AsiaFM HD音樂台,http://asiafm.hk:8000/asiahd
AsiaFM 亞洲天空台,http://funradio.cn:8000/funradio
AsiaFM 亞洲音樂台,http://asiafm.hk:8000/asiafm
AsiaFM 亞洲經典台,http://goldfm.cn:8000/goldfm

CityFM大苗栗廣播,http://fm983.cityfm.tw:8080/983.mp3
CityFM台南之音,http://fm971.cityfm.tw:8080/971.mp3
CityFM城市廣播,http://fm929.cityfm.tw:8080/929.mp3
CityFM臺北健康,http://fm901.cityfm.tw:8080/901.mp3
台中廣播電臺,http://211.20.119.101:8081

CNR哈語廣播,http://live.xmcdn.com/live/1396/64.m3u8
CNR經典音樂,http://ngcdn004.cnr.cn/live/dszs/index.m3u8
CRI Hit FM FM88.7,http://sk.cri.cn/887.m3u8
CRI NEWS Plus AM846,http://sk.cri.cn/am846.m3u8
CRI 輕鬆調頻 FM91.5,http://sk.cri.cn/915.m3u8
1766私房音樂,http://livestream.1766.today:1769/live1.mp3
Modern Radio,http://play.redefine.ltd/Stream1/FM1058-1.m3u8
New Pop Hits,http://rfcmedia.streamguys1.com/newpophitspremium.mp3
News98新聞台,http://n08.rcs.revma.com/55tyxsy4qtzuv?rj-ttl=5&rj-tok=AAABexIiGVkA-wjPtoygVgeNGQ
News98新聞台,http://stream.rcs.revma.com/55tyxsy4qtzuv
VOA美國之音,http://stream.radiojar.com/7thwu53r92quv
VOA美國之音,http://voa-11.akacast.akamaistream.net/7/317/322023/v1/ibb.akacast.akamaistream.net/voa-11.mp3
Big B Radio-中文流行,http://cpop.bigbradio.net/s
Big B Radio-日語流行,http://jpop.bigbradio.net/s
Big B Radio-洲流行,http://apop.bigbradio.net/s
Big B Radio-韓語流行,http://kpop.bigbradio.net/s
天籟之音 Hi-Fi Radio,http://play-radio-stream3.hndt.com/now/JxkyN5mR/playlist.m3u8
天籟之音-國風,http://play-radio-stream3.hndt.com/now/UzPxbRaT/playlist.m3u8
天籟古典,http://stream3.hndt.com/now/MdOpB4zP/playlist.m3u8
心靈音樂館,http://play-radio-stream3.hndt.com/now/AFqvb0VX/playlist.m3u8
古典音樂台,http://play.redefine.ltd/Stream2/FM1058-2.m3u8
搖滾天空台,http://stream3.hndt.com/now/SXJtR4M4/playlist.m3u8
經典FM,http://stream3.hndt.com/now/C5NvUpwy/playlist.m3u8
181FM,http://relay.181.fm:8128
500首華語經典,http://ls.qingting.fm/live/3412131.m3u8?bitrate=64
80後音樂台,http://stream3.hndt.com/now/SFZeH2cb/playlist.m3u8
警廣之聲,http://play-radio-stream3.hndt.com/now/prIgXGFo/playlist.m3u8

格萊美音樂台,http://stream3.hndt.com/now/yorSd1X2/playlist.m3u8
高清音樂台,http://live.xmcdn.com:80/live/1427/64.m3u8
動感音樂台,http://stream3.hndt.com/now/ufjjbZxV/playlist.m3u8

清晨音樂台,http://live.xmcdn.com:80/live/1011/64.m3u8
民謠 藍調,http://play-radio-stream3.hndt.com/now/XWfN89gh/playlist.m3u8
民謠音樂台,http://stream3.hndt.com/now/DTK5qc83/playlist.m3u8
全國治安交通網,http://stream.pbs.gov.tw:1935/live/mp3:PBS/playlist.m3u8
老歌音樂台,http://live.xmcdn.com:80/live/2628/64.m3u8
亞洲經典音樂台,http://live.xmcdn.com:80/live/1005/64.m3u8
佳音現代音樂網,http://cdn51.ccdntech.com/live-http/_definst_/vod51_Live/ch04/playlist.m3u8
佳音經典音樂網,http://cdn51.ccdntech.com/live-http/_definst_/vod51_Live/ch03/chunklist.m3u8
佳音經典音樂網,http://cdn51.ccdntech.com/live-http/_definst_/vod51_Live/ch03/playlist.m3u8
佳音羅東宜蘭FM90.3,http://cdn51.ccdntech.com/live-http/_definst_/vod51_Live/ch02/chunklist.m3u8
佳音羅東宜蘭FM90.3,http://cdn51.ccdntech.com/live-http/_definst_/vod51_Live/ch02/playlist.m3u8

遊戲音樂 RPGame Radio,http://www.rpgamers.net/radio/radio.m3u
遊戲音樂 vgmradio,http://radio.vgmradio.com:8040/stream
電音電臺,http://play.redefine.ltd/Stream3/FM1058-3.m3u8
臺北國際社區廣播電臺,http://live.leanstream.co/ICRTFM-MP3
臺北廣播電臺AM1134,https://stream.ginnet.cloud/live0130lo-yfyo/_definst_/am/playlist.m3u8
臺北廣播電臺FM93.1,https://stream.ginnet.cloud/live0130lo-yfyo/_definst_/fm/playlist.m3u8
臺灣Lounge Radio音樂電臺,http://streaming.radionomy.com/JamendoLounge
臺灣古典音樂台,http://59.120.88.155:8000/live.mp3
臺灣國立教育廣播電臺,https://cast.ner.gov.tw/1?_t=1628097047202
舞迷心竅,http://play-radio-stream3.hndt.com/now/WBhgSD3A/playlist.m3u8
潮流音樂台,http://play-radio-stream3.hndt.com/now/Or5au0KN/playlist.m3u8
懷集音樂台,http://live.xmcdn.com:80/live/966/64.m3u8
員警廣播台中分台,http://stream.pbs.gov.tw:1935/live/TCS/playlist.m3u8
員警廣播台東分台,http://stream.pbs.gov.tw:1935/live/TTS/playlist.m3u8
員警廣播台南分台,http://stream.pbs.gov.tw:1935/live/TNS/playlist.m3u8
員警廣播宜蘭分台,http://stream.pbs.gov.tw:1935/live/ELS/playlist.m3u8
員警廣播花蓮分台,http://stream.pbs.gov.tw:1935/live/HLS/playlist.m3u8
員警廣播高雄分台,http://stream.pbs.gov.tw:1935/live/KSS/playlist.m3u8
員警廣播新竹分台,http://stream.pbs.gov.tw:1935/live/SCS/playlist.m3u8
員警廣播臺北分台,http://stream.pbs.gov.tw:1935/live/TPS/playlist.m3u8
國立教育電臺,http://wowza.ner.gov.tw/live/_definst_/1/playlist.m3u8
國立教育廣播電臺臺北總台FM台,https://cast.ner.gov.tw/1
國立教育廣播電臺臺北總台AM台,https://cast.ner.gov.tw/2